\relax 
\citation{goos}
\citation{mcc}
\citation{rosenhead}
\citation{cool}
\citation{goos}
\citation{rosenhead}
\bibcite{cool}{1}
\bibcite{goos}{2}
\bibcite{mcc}{3}
\bibcite{rosenhead}{4}
\@writefile{lot}{\contentsline {table}{\numberline {1}{\ignorespaces This is an example of a table. Note that it is centred.}}{2}}
\newlabel{energy}{{1}{2}}
\newlabel{11}{{2}{2}}
\@writefile{lof}{\contentsline {figure}{\numberline {1}{\ignorespaces This figure was saved as an encapsulated Postscript file and inserted using the {\tt  epsf} macros. It is also centred between the margins. Because the bounding box of this figure is fairly tight some space has been added above the figure. This is not a good example of a figure; the lines should be thicker and a bigger and bolder font used.}}{2}}
\@writefile{lot}{\contentsline {table}{\numberline {2}{\ignorespaces This is an example of a table. Note that it is centred.}}{3}}
\@writefile{lof}{\contentsline {figure}{\numberline {2}{\ignorespaces This figure was saved as an encapsulated Postscript file and inserted using the {\tt  epsf} macros. It is also centred between the margins. Note that because the bounding box was rather generous some space was removed above and below the figure. This is not a good example of a figure; the lines should be thicker and a bigger and bolder font used.}}{3}}
